\relax 
\providecommand\hyper@newdestlabel[2]{}
\providecommand\HyperFirstAtBeginDocument{\AtBeginDocument}
\HyperFirstAtBeginDocument{\ifx\hyper@anchor\@undefined
\global\let\oldcontentsline\contentsline
\gdef\contentsline#1#2#3#4{\oldcontentsline{#1}{#2}{#3}}
\global\let\oldnewlabel\newlabel
\gdef\newlabel#1#2{\newlabelxx{#1}#2}
\gdef\newlabelxx#1#2#3#4#5#6{\oldnewlabel{#1}{{#2}{#3}}}
\AtEndDocument{\ifx\hyper@anchor\@undefined
\let\contentsline\oldcontentsline
\let\newlabel\oldnewlabel
\fi}
\fi}
\global\let\hyper@last\relax 
\gdef\HyperFirstAtBeginDocument#1{#1}
\providecommand*\HyPL@Entry[1]{}
\HyPL@Entry{0<</S/D>>}
\@writefile{toc}{\contentsline {section}{\numberline {1}Definitions}{1}{section.1}\protected@file@percent }
\newlabel{regular curve}{{9}{1}{Definitions}{definition.9}{}}
\@writefile{toc}{\contentsline {section}{\numberline {2}Theorems}{2}{section.2}\protected@file@percent }
\bibdata{bibliography}
\@writefile{toc}{\contentsline {section}{\numberline {3}Proofs}{4}{section.3}\protected@file@percent }
\newlabel{Arclength parametrization}{{3}{4}{Arclength parametrization}{section*.1}{}}
\newlabel{B is colinear with N}{{3}{4}{Arclength parametrization}{proof.5}{}}
\@writefile{toc}{\contentsline {section}{\numberline {4}Exercises}{4}{section.4}\protected@file@percent }
\bibstyle{ieeetr}
