\relax 
\providecommand\zref@newlabel[2]{}
\providecommand\hyper@newdestlabel[2]{}
\providecommand\HyperFirstAtBeginDocument{\AtBeginDocument}
\HyperFirstAtBeginDocument{\ifx\hyper@anchor\@undefined
\global\let\oldcontentsline\contentsline
\gdef\contentsline#1#2#3#4{\oldcontentsline{#1}{#2}{#3}}
\global\let\oldnewlabel\newlabel
\gdef\newlabel#1#2{\newlabelxx{#1}#2}
\gdef\newlabelxx#1#2#3#4#5#6{\oldnewlabel{#1}{{#2}{#3}}}
\AtEndDocument{\ifx\hyper@anchor\@undefined
\let\contentsline\oldcontentsline
\let\newlabel\oldnewlabel
\fi}
\fi}
\global\let\hyper@last\relax 
\gdef\HyperFirstAtBeginDocument#1{#1}
\providecommand\HyField@AuxAddToFields[1]{}
\providecommand\HyField@AuxAddToCoFields[2]{}
\citation{mitchell_discrete_1987}
\providecommand \oddpage@label [2]{}
\citation{surazhsky_fast_2005}
\@writefile{lof}{\contentsline {figure}{\numberline {1}{\ignorespaces At the start of the algorithm, we create 3 widnows of optimality, which define planar cones that will intersect the edges of the mesh.\relax }}{3}{figure.caption.7}\protected@file@percent }
\@writefile{lof}{\contentsline {figure}{\numberline {2}{\ignorespaces The green edge represents the intersection of the window with the edge.\relax }}{3}{figure.caption.8}\protected@file@percent }
\@writefile{lof}{\contentsline {figure}{\numberline {3}{\ignorespaces The mediatrice $fm$ splits the segment into 2 regions.\relax }}{4}{figure.caption.9}\protected@file@percent }
\providecommand*\caption@xref[2]{\@setref\relax\@undefined{#1}}
\newlabel{fig:overlap}{{3}{4}{The mediatrice $fm$ splits the segment into 2 regions.\relax }{figure.caption.9}{}}
\bibdata{bibliography}
\bibcite{mitchell_discrete_1987}{1}
\bibcite{surazhsky_fast_2005}{2}
\bibstyle{ieeetr}
