\relax 
\providecommand\zref@newlabel[2]{}
\providecommand\hyper@newdestlabel[2]{}
\providecommand\HyperFirstAtBeginDocument{\AtBeginDocument}
\HyperFirstAtBeginDocument{\ifx\hyper@anchor\@undefined
\global\let\oldcontentsline\contentsline
\gdef\contentsline#1#2#3#4{\oldcontentsline{#1}{#2}{#3}}
\global\let\oldnewlabel\newlabel
\gdef\newlabel#1#2{\newlabelxx{#1}#2}
\gdef\newlabelxx#1#2#3#4#5#6{\oldnewlabel{#1}{{#2}{#3}}}
\AtEndDocument{\ifx\hyper@anchor\@undefined
\let\contentsline\oldcontentsline
\let\newlabel\oldnewlabel
\fi}
\fi}
\global\let\hyper@last\relax 
\gdef\HyperFirstAtBeginDocument#1{#1}
\providecommand*\HyPL@Entry[1]{}
\HyPL@Entry{0<</S/D>>}
\@writefile{lof}{\contentsline {figure}{\numberline {1}{\ignorespaces Images displaying an anisotropic 2D Gaussian distribution\relax }}{1}{figure.caption.2}\protected@file@percent }
\@writefile{lof}{\contentsline {figure}{\numberline {2}{\ignorespaces Evolution of an interpolated Gaussian point. The red curve is the interpolation curve. The red dotted line is an isocontour of the interpolated point's PDF. The blue regions are some isocontours of the Gaussian PDFs of the end points.\relax }}{3}{figure.caption.4}\protected@file@percent }
\newlabel{sec:creatingDualSpace}{{}{3}{Creating a Dual Space}{section*.5}{}}
\newlabel{sec:productGaussians}{{}{6}{Product of Gaussian PDFs}{section*.6}{}}
\newlabel{sec:usinDualSpace}{{}{8}{Using the Dual Space}{section*.7}{}}
\newlabel{sec:gaussianIsocontours}{{}{9}{Gaussian Isocontours}{section*.8}{}}
\@writefile{lof}{\contentsline {figure}{\numberline {3}{\ignorespaces 2 possible results of extending LoopSubdivision with GPS\relax }}{11}{figure.caption.11}\protected@file@percent }
\citation{*}
\bibdata{bibliography}
\bibcite{Preiner2019}{1}
\bibcite{3674192}{2}
\bibcite{3617084}{3}
\bibstyle{ieeetr}
